{
	"lists":[
		{
			"title":"今天周一，我不想工作",
			"pic":"img/index_39.png"
		},
		{
			"title":"今天周二，我不想工作",
			"pic":"img/index_39.png"
		},
		{
			"title":"今天周三，我不想工作",
			"pic":"img/index_11.png"
		}
	]
}

